\relax 
\catcode `"\active 
\babel@aux{brazilian}{}
\@writefile{toc}{\contentsline {chapter}{\numberline {1}Dom\IeC {\'\i }nio de fun\IeC {\c c}\IeC {\~o}es de 2 vari\IeC {\'a}veis reais}{II}\protected@file@percent }
\@writefile{lof}{\addvspace {10\p@ }}
\@writefile{lot}{\addvspace {10\p@ }}
\@writefile{toc}{\contentsline {section}{\numberline {1.1}Equa\IeC {\c c}\IeC {\~a}o reduzida da Circunfer\IeC {\^e}ncia}{III}\protected@file@percent }
\@writefile{toc}{\contentsline {subsection}{\numberline {1.1.1}Ex1}{III}\protected@file@percent }
\@writefile{toc}{\contentsline {subsection}{\numberline {1.1.2}Ex2}{IV}\protected@file@percent }
\@writefile{toc}{\contentsline {subsection}{\numberline {1.1.3}Ex3}{V}\protected@file@percent }
\@writefile{toc}{\contentsline {subsection}{\numberline {1.1.4}Ex4}{VI}\protected@file@percent }
\@writefile{toc}{\contentsline {subsection}{\numberline {1.1.5}Ex O}{VII}\protected@file@percent }
\@writefile{toc}{\contentsline {subsection}{\numberline {1.1.6}Ex P}{VIII}\protected@file@percent }
\@writefile{toc}{\contentsline {chapter}{\numberline {2}Derivadas Parciais}{IX}\protected@file@percent }
\@writefile{lof}{\addvspace {10\p@ }}
\@writefile{lot}{\addvspace {10\p@ }}
\global\@namedef{scr@dte@chapter@lastmaxnumwidth}{10.3474pt}
