\babel@toc {brazilian}{}
\contentsline {chapter}{\numberline {1}Dom\IeC {\'\i }nio de fun\IeC {\c c}\IeC {\~o}es de 2 vari\IeC {\'a}veis reais}{II}% 
\contentsline {section}{\numberline {1.1}Equa\IeC {\c c}\IeC {\~a}o reduzida da Circunfer\IeC {\^e}ncia}{III}% 
\contentsline {subsection}{\numberline {1.1.1}Ex1}{III}% 
\contentsline {subsection}{\numberline {1.1.2}Ex2}{IV}% 
\contentsline {subsection}{\numberline {1.1.3}Ex3}{V}% 
\contentsline {subsection}{\numberline {1.1.4}Ex4}{VI}% 
\contentsline {subsection}{\numberline {1.1.5}Ex O}{VII}% 
\contentsline {subsection}{\numberline {1.1.6}Ex P}{VIII}% 
\contentsline {chapter}{\numberline {2}Derivadas Parciais}{IX}% 
