# Fdb version 3
["pdflatex"] 1551219256 "/home/jhony75/Documents/Faculdade/EstruturaDeDados/Abstract/AlgoritmosComen.tex" "/home/jhony75/Documents/Faculdade/EstruturaDeDados/Abstract/AlgoritmosComen.pdf" "AlgoritmosComen" 1551219256
  "/home/jhony75/Documents/Faculdade/EstruturaDeDados/Abstract/AlgoritmosComen.aux" 1551219256 307 94227dd50c0acf4cfe3017030340e5f5 ""
  "/home/jhony75/Documents/Faculdade/EstruturaDeDados/Abstract/AlgoritmosComen.tex" 1551219256 846 e9adcf73fe58962c5b0169b8a895fe82 ""
  "/usr/share/texmf-dist/fonts/enc/dvips/cm-super/cm-super-t1.enc" 1550406775 2971 def0b6c1f0b107b3b936def894055589 ""
  "/usr/share/texmf-dist/fonts/map/fontname/texfonts.map" 1550406775 3332 103109f5612ad95229751940c61aada0 ""
  "/usr/share/texmf-dist/fonts/tfm/adobe/times/ptmr8t.tfm" 1550406775 6672 e3ab9e37e925f3045c9005e6d1473d56 ""
  "/usr/share/texmf-dist/fonts/tfm/jknappen/ec/ecbx1000.tfm" 1550406775 3584 2d666ecf6d466d8b007246bc2f94d9da ""
  "/usr/share/texmf-dist/fonts/tfm/jknappen/ec/ecbx2074.tfm" 1550406775 3584 7666d038713b9e38abb5c2e0f6972188 ""
  "/usr/share/texmf-dist/fonts/tfm/jknappen/ec/ecbx2488.tfm" 1550406775 3584 0181dbc4d429c3ba4e30feba37b5df96 ""
  "/usr/share/texmf-dist/fonts/tfm/jknappen/ec/ecrm1000.tfm" 1550406775 3584 adb004a0c8e7c46ee66cad73671f37b4 ""
  "/usr/share/texmf-dist/fonts/tfm/jknappen/ec/ecrm1200.tfm" 1550406775 3584 f80ddd985bd00e29e9a6047ebd9d4781 ""
  "/usr/share/texmf-dist/fonts/tfm/jknappen/ec/ecrm1728.tfm" 1550406775 3584 3c76ccb63eda935a68ba65ba9da29f1a ""
  "/usr/share/texmf-dist/fonts/tfm/jknappen/ec/ecrm2074.tfm" 1550406775 3584 8e2870ec7aa9776f59654942b0923f51 ""
  "/usr/share/texmf-dist/fonts/tfm/jknappen/ec/ecrm2488.tfm" 1550406775 3584 406ad7b70d9a41f7833f92b6313150c8 ""
  "/usr/share/texmf-dist/fonts/tfm/jknappen/ec/ecsl1000.tfm" 1550406775 3584 bf02fd9e8bc8c375f218c700cabb9a92 ""
  "/usr/share/texmf-dist/fonts/tfm/public/cm/cmmi12.tfm" 1550406775 1524 4414a8315f39513458b80dfc63bff03a ""
  "/usr/share/texmf-dist/fonts/tfm/public/cm/cmmi6.tfm" 1550406775 1512 f21f83efb36853c0b70002322c1ab3ad ""
  "/usr/share/texmf-dist/fonts/tfm/public/cm/cmmi8.tfm" 1550406775 1520 eccf95517727cb11801f4f1aee3a21b4 ""
  "/usr/share/texmf-dist/fonts/tfm/public/cm/cmr12.tfm" 1550406775 1288 655e228510b4c2a1abe905c368440826 ""
  "/usr/share/texmf-dist/fonts/tfm/public/cm/cmr6.tfm" 1550406775 1300 b62933e007d01cfd073f79b963c01526 ""
  "/usr/share/texmf-dist/fonts/tfm/public/cm/cmr8.tfm" 1550406775 1292 21c1c5bfeaebccffdb478fd231a0997d ""
  "/usr/share/texmf-dist/fonts/tfm/public/cm/cmsy10.tfm" 1550406775 1124 6c73e740cf17375f03eec0ee63599741 ""
  "/usr/share/texmf-dist/fonts/tfm/public/cm/cmsy6.tfm" 1550406775 1116 933a60c408fc0a863a92debe84b2d294 ""
  "/usr/share/texmf-dist/fonts/tfm/public/cm/cmsy8.tfm" 1550406775 1120 8b7d695260f3cff42e636090a8002094 ""
  "/usr/share/texmf-dist/fonts/type1/public/cm-super/sfbx1000.pfb" 1550406775 145408 43d44302ca7d82d487f511f83e309505 ""
  "/usr/share/texmf-dist/fonts/type1/public/cm-super/sfbx2074.pfb" 1550406775 140194 627cc7f36c05b80e25d178974ccb3442 ""
  "/usr/share/texmf-dist/fonts/type1/public/cm-super/sfbx2488.pfb" 1550406775 135938 299ac3a69892db3b7674a8b2543b0a77 ""
  "/usr/share/texmf-dist/fonts/type1/public/cm-super/sfrm1000.pfb" 1550406775 138258 6525c253f16cededa14c7fd0da7f67b2 ""
  "/usr/share/texmf-dist/fonts/type1/public/cm-super/sfrm1200.pfb" 1550406775 136101 f533469f523533d38317ab5729d00c8a ""
  "/usr/share/texmf-dist/fonts/type1/public/cm-super/sfrm1728.pfb" 1550406775 131438 3aa300b3e40e5c8ba7b4e5c6cebc5dd6 ""
  "/usr/share/texmf-dist/tex/generic/babel-portuges/portuges.ldf" 1550406775 6605 2bd2937f1ce929b4a1367cc2d320364e ""
  "/usr/share/texmf-dist/tex/generic/babel/babel.def" 1550406775 74097 730193adbb112990f38051a05f35ac11 ""
  "/usr/share/texmf-dist/tex/generic/babel/babel.sty" 1550406775 16329 4c42e43c85185e6cb0936a628ade375c ""
  "/usr/share/texmf-dist/tex/generic/babel/switch.def" 1550406775 13310 fcb0ad08386d450f0c718feed9fe2fee ""
  "/usr/share/texmf-dist/tex/generic/babel/txtbabel.def" 1550406775 7435 6c566fc19b3503b2b2da8bb4550f2b58 ""
  "/usr/share/texmf-dist/tex/generic/ifxetex/ifxetex.sty" 1550406775 1458 43ab4710dc82f3edeabecd0d099626b2 ""
  "/usr/share/texmf-dist/tex/generic/oberdiek/ifluatex.sty" 1550406775 7324 2310d1247db0114eb4726807c8837a0e ""
  "/usr/share/texmf-dist/tex/generic/oberdiek/ifpdf.sty" 1550406775 1300 96620a7d94bc0ceb261d968770ce8315 ""
  "/usr/share/texmf-dist/tex/generic/oberdiek/ifvtex.sty" 1550406775 6797 90b7f83b0ad46826bc16058b1e3d48df ""
  "/usr/share/texmf-dist/tex/generic/xkeyval/xkeyval.tex" 1550406775 19231 26434a5656c684f5ffb1f26f98006baa ""
  "/usr/share/texmf-dist/tex/generic/xkeyval/xkvutils.tex" 1550406775 7677 6f5ce7c1124cad7ec57d05b2562bd8fe ""
  "/usr/share/texmf-dist/tex/latex/abnt/abnt.sty" 1550406587 5796 0db0164fee5475bd1c3c2ff5e2e72ce4 ""
  "/usr/share/texmf-dist/tex/latex/base/fontenc.sty" 1550406775 4573 e9e01f5b11821a77b916dad378cb86b8 ""
  "/usr/share/texmf-dist/tex/latex/base/inputenc.sty" 1550406775 5052 b64c57f4a38aae0d2745f8298fa50814 ""
  "/usr/share/texmf-dist/tex/latex/base/ot1enc.def" 1550406775 4453 d5831dc89210b5bb4c03801480f5ff1d ""
  "/usr/share/texmf-dist/tex/latex/base/report.cls" 1550406775 22992 ac205d2578ad3f18cf73b50579632d1c ""
  "/usr/share/texmf-dist/tex/latex/base/size10.clo" 1550406775 8294 6d6e23d5169c0d89d173f6c7e08a005a ""
  "/usr/share/texmf-dist/tex/latex/base/t1enc.def" 1550406775 10689 ce0f2353f9a1f42b29f591f3fe8e040a ""
  "/usr/share/texmf-dist/tex/latex/caption/caption.sty" 1550406775 68576 86bbc6bd5a409b3c353fccc1a815fa5b ""
  "/usr/share/texmf-dist/tex/latex/caption/caption3.sty" 1550406775 68510 943558eecf41da4e76fc614fd7f5deff ""
  "/usr/share/texmf-dist/tex/latex/caption/newfloat.sty" 1550406775 24002 a9cde8f918e6ea68b110258d18c35edd ""
  "/usr/share/texmf-dist/tex/latex/chngcntr/chngcntr.sty" 1550406342 4336 84bc4a8edb126e69abec1a67dc0c36cf ""
  "/usr/share/texmf-dist/tex/latex/emptypage/emptypage.sty" 1550406342 1524 7aa6e808cbd25977ee4abad01b013964 ""
  "/usr/share/texmf-dist/tex/latex/etoolbox/etoolbox.sty" 1550406775 43865 f83cc2fa3767abdb988c7d2cd17c02bf ""
  "/usr/share/texmf-dist/tex/latex/geometry/geometry.sty" 1550406775 41645 0653033a985e06c69a2a9cea9a95e31a ""
  "/usr/share/texmf-dist/tex/latex/graphics/keyval.sty" 1550406775 2591 6404d0c7d28505fb38ce0d86c2e28ae7 ""
  "/usr/share/texmf-dist/tex/latex/koma-script/scrbase.sty" 1550406775 81085 17c6bc778d65581878b7ff0b0753fb77 ""
  "/usr/share/texmf-dist/tex/latex/koma-script/scrkbase.sty" 1550406775 22023 79a694d8a1bcff7a7bc417d04572bae5 ""
  "/usr/share/texmf-dist/tex/latex/koma-script/scrlayer-scrpage.sty" 1550406775 70981 b0f764879e23417a16617f15311473c4 ""
  "/usr/share/texmf-dist/tex/latex/koma-script/scrlayer.sty" 1550406775 83307 c2e51f335f22163f690881411a650c5a ""
  "/usr/share/texmf-dist/tex/latex/koma-script/scrlfile.sty" 1550406775 15778 6cd4024c756f36926e3648af5491b355 ""
  "/usr/share/texmf-dist/tex/latex/koma-script/tocbasic.sty" 1550406775 81976 8b9a8578993190cef03de666387a190a ""
  "/usr/share/texmf-dist/tex/latex/ly1/ly1enc.def" 1550407196 11946 d12ad5d7adce38642490713f93964ec2 ""
  "/usr/share/texmf-dist/tex/latex/ly1/ly1ptm.fd" 1550407196 1053 1946f431f0fed8f7fd7d097237037354 ""
  "/usr/share/texmf-dist/tex/latex/mweights/mweights.sty" 1550407196 4953 67f29a12ea26221103fce6bae3433e60 ""
  "/usr/share/texmf-dist/tex/latex/psnfss/t1ptm.fd" 1550406775 774 61d7da1e9f9e74989b196d147e623736 ""
  "/usr/share/texmf-dist/tex/latex/setspace/setspace.sty" 1550406775 22913 a27d7908fc6f0385466454a966a316eb ""
  "/usr/share/texmf-dist/tex/latex/sourcecodepro/sourcecodepro.sty" 1550407196 6234 7da9c90aee6935036ebeccd15cebdc78 ""
  "/usr/share/texmf-dist/tex/latex/tools/enumerate.sty" 1550406775 3465 3f63ff30365d38132fb55859c9cabd4d ""
  "/usr/share/texmf-dist/tex/latex/ucs/data/uni-0.def" 1550406342 7784 086a50b784a20762a031889b73f97126 ""
  "/usr/share/texmf-dist/tex/latex/ucs/data/uni-global.def" 1550406342 1375 8a855db83af5d6753ccbbd32e6a8a901 ""
  "/usr/share/texmf-dist/tex/latex/ucs/ucs.sty" 1550406342 27982 5723d81d568db410592a59b85fb3eaae ""
  "/usr/share/texmf-dist/tex/latex/ucs/ucsencs.def" 1550406342 22368 c53c9d0d16c65bef2b157515c9d9f658 ""
  "/usr/share/texmf-dist/tex/latex/ucs/utf8x.def" 1550406342 8036 21f7ac37aafb6cfeddbb196b8bfd6280 ""
  "/usr/share/texmf-dist/tex/latex/xkeyval/xkeyval.sty" 1550406775 4962 9c1069474ff71dbc47d5006555e352d3 ""
  "/usr/share/texmf-dist/web2c/texmf.cnf" 1550406775 33301 a3134070eacafb10b1f371612ce2650d ""
  "/var/lib/texmf/fonts/map/pdftex/updmap/pdftex.map" 1550602142 3233842 1a92d1d21a91d82fa70913e968179e54 ""
  "/var/lib/texmf/web2c/pdftex/pdflatex.fmt" 1550602134 7919196 9a26d635fe81751e4cff30606f86ee72 ""
  "AlgoritmosComen.aux" 1551219256 307 94227dd50c0acf4cfe3017030340e5f5 ""
  "AlgoritmosComen.tex" 1551219256 846 e9adcf73fe58962c5b0169b8a895fe82 ""
  "AlgoritmosComen.toc" 1551219256 103 140bcc8240ce1fd62940792376c10f3e ""
  (generated)
  "AlgoritmosComen.pdf"
  "/home/jhony75/Documents/Faculdade/EstruturaDeDados/Abstract/AlgoritmosComen.pdf"
  "AlgoritmosComen.toc"
  "/home/jhony75/Documents/Faculdade/EstruturaDeDados/Abstract/AlgoritmosComen.log"
  "AlgoritmosComen.aux"
  "AlgoritmosComen.log"
