PWD /home/jhony75/Documents/Faculdade/Eletrotecnica
INPUT /usr/share/texmf-dist/web2c/texmf.cnf
INPUT /var/lib/texmf/web2c/pdftex/pdflatex.fmt
INPUT /home/jhony75/Documents/Faculdade/Eletrotecnica/Eletrotecnica.tex
OUTPUT /home/jhony75/Documents/Faculdade/Eletrotecnica/Eletrotecnica.log
INPUT /usr/share/texmf-dist/tex/latex/base/report.cls
INPUT /usr/share/texmf-dist/tex/latex/base/report.cls
INPUT /usr/share/texmf-dist/tex/latex/base/size10.clo
INPUT /usr/share/texmf-dist/tex/latex/base/size10.clo
INPUT /usr/share/texmf-dist/tex/generic/babel/babel.sty
INPUT /usr/share/texmf-dist/tex/generic/babel/babel.sty
INPUT /usr/share/texmf-dist/tex/generic/babel/switch.def
INPUT /usr/share/texmf-dist/tex/generic/babel-portuges/portuges.ldf
INPUT /usr/share/texmf-dist/tex/generic/babel-portuges/portuges.ldf
INPUT /usr/share/texmf-dist/tex/generic/babel/babel.def
INPUT /usr/share/texmf-dist/tex/generic/babel/txtbabel.def
INPUT /usr/share/texmf-dist/tex/latex/base/inputenc.sty
INPUT /usr/share/texmf-dist/tex/latex/base/inputenc.sty
INPUT /usr/share/texmf-dist/tex/latex/abnt/abnt.sty
INPUT /usr/share/texmf-dist/tex/latex/abnt/abnt.sty
INPUT /usr/share/texmf-dist/tex/latex/geometry/geometry.sty
INPUT /usr/share/texmf-dist/tex/latex/geometry/geometry.sty
INPUT /usr/share/texmf-dist/tex/latex/graphics/keyval.sty
INPUT /usr/share/texmf-dist/tex/latex/graphics/keyval.sty
INPUT /usr/share/texmf-dist/tex/generic/oberdiek/ifpdf.sty
INPUT /usr/share/texmf-dist/tex/generic/oberdiek/ifpdf.sty
INPUT /usr/share/texmf-dist/tex/generic/oberdiek/ifvtex.sty
INPUT /usr/share/texmf-dist/tex/generic/oberdiek/ifvtex.sty
INPUT /usr/share/texmf-dist/tex/generic/ifxetex/ifxetex.sty
INPUT /usr/share/texmf-dist/tex/generic/ifxetex/ifxetex.sty
INPUT /usr/share/texmf-dist/tex/latex/setspace/setspace.sty
INPUT /usr/share/texmf-dist/tex/latex/setspace/setspace.sty
INPUT /usr/share/texmf-dist/tex/latex/koma-script/scrlayer-scrpage.sty
INPUT /usr/share/texmf-dist/tex/latex/koma-script/scrlayer-scrpage.sty
INPUT /usr/share/texmf-dist/tex/latex/koma-script/scrlayer.sty
INPUT /usr/share/texmf-dist/tex/latex/koma-script/scrlayer.sty
INPUT /usr/share/texmf-dist/tex/latex/koma-script/scrkbase.sty
INPUT /usr/share/texmf-dist/tex/latex/koma-script/scrkbase.sty
INPUT /usr/share/texmf-dist/tex/latex/koma-script/scrbase.sty
INPUT /usr/share/texmf-dist/tex/latex/koma-script/scrbase.sty
INPUT /usr/share/texmf-dist/tex/latex/koma-script/scrlfile.sty
INPUT /usr/share/texmf-dist/tex/latex/koma-script/scrlfile.sty
INPUT /usr/share/texmf-dist/tex/latex/emptypage/emptypage.sty
INPUT /usr/share/texmf-dist/tex/latex/emptypage/emptypage.sty
INPUT /usr/share/texmf-dist/tex/latex/etoolbox/etoolbox.sty
INPUT /usr/share/texmf-dist/tex/latex/etoolbox/etoolbox.sty
INPUT /usr/share/texmf-dist/tex/latex/caption/newfloat.sty
INPUT /usr/share/texmf-dist/tex/latex/caption/newfloat.sty
INPUT /usr/share/texmf-dist/tex/latex/caption/caption.sty
INPUT /usr/share/texmf-dist/tex/latex/caption/caption.sty
INPUT /usr/share/texmf-dist/tex/latex/caption/caption3.sty
INPUT /usr/share/texmf-dist/tex/latex/caption/caption3.sty
INPUT /usr/share/texmf-dist/tex/latex/chngcntr/chngcntr.sty
INPUT /usr/share/texmf-dist/tex/latex/chngcntr/chngcntr.sty
INPUT /usr/share/texmf-dist/tex/latex/koma-script/tocbasic.sty
INPUT /usr/share/texmf-dist/tex/latex/koma-script/tocbasic.sty
INPUT /usr/share/texmf-dist/tex/latex/tools/enumerate.sty
INPUT /usr/share/texmf-dist/tex/latex/tools/enumerate.sty
INPUT /usr/share/texmf-dist/tex/latex/base/fontenc.sty
INPUT /usr/share/texmf-dist/tex/latex/base/fontenc.sty
INPUT /usr/share/texmf-dist/tex/latex/base/t1enc.def
INPUT /usr/share/texmf-dist/tex/latex/base/t1enc.def
INPUT /usr/share/texmf-dist/fonts/map/fontname/texfonts.map
INPUT /usr/share/texmf-dist/fonts/tfm/jknappen/ec/ecrm1000.tfm
INPUT /usr/share/texmf-dist/tex/latex/sourcecodepro/sourcecodepro.sty
INPUT /usr/share/texmf-dist/tex/latex/sourcecodepro/sourcecodepro.sty
INPUT /usr/share/texmf-dist/tex/generic/oberdiek/ifluatex.sty
INPUT /usr/share/texmf-dist/tex/generic/oberdiek/ifluatex.sty
INPUT /usr/share/texmf-dist/tex/latex/xkeyval/xkeyval.sty
INPUT /usr/share/texmf-dist/tex/latex/xkeyval/xkeyval.sty
INPUT /usr/share/texmf-dist/tex/generic/xkeyval/xkeyval.tex
INPUT /usr/share/texmf-dist/tex/generic/xkeyval/xkvutils.tex
INPUT /usr/share/texmf-dist/tex/latex/base/fontenc.sty
INPUT /usr/share/texmf-dist/tex/latex/base/fontenc.sty
INPUT /usr/share/texmf-dist/tex/latex/base/ot1enc.def
INPUT /usr/share/texmf-dist/tex/latex/base/ot1enc.def
INPUT /usr/share/texmf-dist/tex/latex/ly1/ly1enc.def
INPUT /usr/share/texmf-dist/tex/latex/ly1/ly1enc.def
INPUT /usr/share/texmf-dist/tex/latex/base/ly1enc.dfu
INPUT /usr/share/texmf-dist/tex/latex/base/ly1enc.dfu
INPUT /usr/share/texmf-dist/tex/latex/base/t1enc.def
INPUT /usr/share/texmf-dist/tex/latex/base/t1enc.def
INPUT /usr/share/texmf-dist/tex/latex/psnfss/t1ptm.fd
INPUT /usr/share/texmf-dist/tex/latex/psnfss/t1ptm.fd
INPUT /usr/share/texmf-dist/fonts/tfm/adobe/times/ptmr8t.tfm
INPUT /usr/share/texmf-dist/tex/latex/mweights/mweights.sty
INPUT /usr/share/texmf-dist/tex/latex/mweights/mweights.sty
INPUT /usr/share/texmf-dist/tex/latex/pgf/frontendlayer/tikz.sty
INPUT /usr/share/texmf-dist/tex/latex/pgf/frontendlayer/tikz.sty
INPUT /usr/share/texmf-dist/tex/latex/pgf/basiclayer/pgf.sty
INPUT /usr/share/texmf-dist/tex/latex/pgf/basiclayer/pgf.sty
INPUT /usr/share/texmf-dist/tex/latex/pgf/utilities/pgfrcs.sty
INPUT /usr/share/texmf-dist/tex/latex/pgf/utilities/pgfrcs.sty
INPUT /usr/share/texmf-dist/tex/generic/pgf/utilities/pgfutil-common.tex
INPUT /usr/share/texmf-dist/tex/generic/pgf/utilities/pgfutil-common-lists.tex
INPUT /usr/share/texmf-dist/tex/generic/pgf/utilities/pgfutil-latex.def
INPUT /usr/share/texmf-dist/tex/latex/ms/everyshi.sty
INPUT /usr/share/texmf-dist/tex/latex/ms/everyshi.sty
INPUT /usr/share/texmf-dist/tex/generic/pgf/utilities/pgfrcs.code.tex
INPUT /usr/share/texmf-dist/tex/generic/pgf/utilities/pgfrcs.code.tex
INPUT /usr/share/texmf-dist/tex/generic/pgf/pgf.revision.tex
INPUT /usr/share/texmf-dist/tex/generic/pgf/pgf.revision.tex
INPUT /usr/share/texmf-dist/tex/latex/pgf/basiclayer/pgfcore.sty
INPUT /usr/share/texmf-dist/tex/latex/pgf/basiclayer/pgfcore.sty
INPUT /usr/share/texmf-dist/tex/latex/graphics/graphicx.sty
INPUT /usr/share/texmf-dist/tex/latex/graphics/graphicx.sty
INPUT /usr/share/texmf-dist/tex/latex/graphics/graphics.sty
INPUT /usr/share/texmf-dist/tex/latex/graphics/graphics.sty
INPUT /usr/share/texmf-dist/tex/latex/graphics/trig.sty
INPUT /usr/share/texmf-dist/tex/latex/graphics/trig.sty
INPUT /usr/share/texmf-dist/tex/latex/graphics-cfg/graphics.cfg
INPUT /usr/share/texmf-dist/tex/latex/graphics-cfg/graphics.cfg
INPUT /usr/share/texmf-dist/tex/latex/graphics-def/pdftex.def
INPUT /usr/share/texmf-dist/tex/latex/graphics-def/pdftex.def
INPUT /usr/share/texmf-dist/tex/latex/pgf/systemlayer/pgfsys.sty
INPUT /usr/share/texmf-dist/tex/latex/pgf/systemlayer/pgfsys.sty
INPUT /usr/share/texmf-dist/tex/generic/pgf/systemlayer/pgfsys.code.tex
INPUT /usr/share/texmf-dist/tex/generic/pgf/systemlayer/pgfsys.code.tex
INPUT /usr/share/texmf-dist/tex/generic/pgf/utilities/pgfkeys.code.tex
INPUT /usr/share/texmf-dist/tex/generic/pgf/utilities/pgfkeysfiltered.code.tex
INPUT /usr/share/texmf-dist/tex/generic/pgf/systemlayer/pgf.cfg
INPUT /usr/share/texmf-dist/tex/generic/pgf/systemlayer/pgfsys-pdftex.def
INPUT /usr/share/texmf-dist/tex/generic/pgf/systemlayer/pgfsys-pdftex.def
INPUT /usr/share/texmf-dist/tex/generic/pgf/systemlayer/pgfsys-common-pdf.def
INPUT /usr/share/texmf-dist/tex/generic/pgf/systemlayer/pgfsyssoftpath.code.tex
INPUT /usr/share/texmf-dist/tex/generic/pgf/systemlayer/pgfsyssoftpath.code.tex
INPUT /usr/share/texmf-dist/tex/generic/pgf/systemlayer/pgfsysprotocol.code.tex
INPUT /usr/share/texmf-dist/tex/generic/pgf/systemlayer/pgfsysprotocol.code.tex
INPUT /usr/share/texmf-dist/tex/latex/xcolor/xcolor.sty
INPUT /usr/share/texmf-dist/tex/latex/xcolor/xcolor.sty
INPUT /usr/share/texmf-dist/tex/latex/graphics-cfg/color.cfg
INPUT /usr/share/texmf-dist/tex/latex/graphics-cfg/color.cfg
INPUT /usr/share/texmf-dist/tex/generic/pgf/basiclayer/pgfcore.code.tex
INPUT /usr/share/texmf-dist/tex/generic/pgf/basiclayer/pgfcore.code.tex
INPUT /usr/share/texmf-dist/tex/generic/pgf/math/pgfmath.code.tex
INPUT /usr/share/texmf-dist/tex/generic/pgf/math/pgfmathcalc.code.tex
INPUT /usr/share/texmf-dist/tex/generic/pgf/math/pgfmathutil.code.tex
INPUT /usr/share/texmf-dist/tex/generic/pgf/math/pgfmathparser.code.tex
INPUT /usr/share/texmf-dist/tex/generic/pgf/math/pgfmathfunctions.code.tex
INPUT /usr/share/texmf-dist/tex/generic/pgf/math/pgfmathfunctions.basic.code.tex
INPUT /usr/share/texmf-dist/tex/generic/pgf/math/pgfmathfunctions.trigonometric.code.tex
INPUT /usr/share/texmf-dist/tex/generic/pgf/math/pgfmathfunctions.random.code.tex
INPUT /usr/share/texmf-dist/tex/generic/pgf/math/pgfmathfunctions.comparison.code.tex
INPUT /usr/share/texmf-dist/tex/generic/pgf/math/pgfmathfunctions.base.code.tex
INPUT /usr/share/texmf-dist/tex/generic/pgf/math/pgfmathfunctions.round.code.tex
INPUT /usr/share/texmf-dist/tex/generic/pgf/math/pgfmathfunctions.misc.code.tex
INPUT /usr/share/texmf-dist/tex/generic/pgf/math/pgfmathfunctions.integerarithmetics.code.tex
INPUT /usr/share/texmf-dist/tex/generic/pgf/math/pgfmathfloat.code.tex
INPUT /usr/share/texmf-dist/tex/generic/pgf/basiclayer/pgfcorepoints.code.tex
INPUT /usr/share/texmf-dist/tex/generic/pgf/basiclayer/pgfcorepathconstruct.code.tex
INPUT /usr/share/texmf-dist/tex/generic/pgf/basiclayer/pgfcorepathusage.code.tex
INPUT /usr/share/texmf-dist/tex/generic/pgf/basiclayer/pgfcorescopes.code.tex
INPUT /usr/share/texmf-dist/tex/generic/pgf/basiclayer/pgfcoregraphicstate.code.tex
INPUT /usr/share/texmf-dist/tex/generic/pgf/basiclayer/pgfcoretransformations.code.tex
INPUT /usr/share/texmf-dist/tex/generic/pgf/basiclayer/pgfcorequick.code.tex
INPUT /usr/share/texmf-dist/tex/generic/pgf/basiclayer/pgfcoreobjects.code.tex
INPUT /usr/share/texmf-dist/tex/generic/pgf/basiclayer/pgfcorepathprocessing.code.tex
INPUT /usr/share/texmf-dist/tex/generic/pgf/basiclayer/pgfcorearrows.code.tex
INPUT /usr/share/texmf-dist/tex/generic/pgf/basiclayer/pgfcoreshade.code.tex
INPUT /usr/share/texmf-dist/tex/generic/pgf/basiclayer/pgfcoreimage.code.tex
INPUT /usr/share/texmf-dist/tex/generic/pgf/basiclayer/pgfcoreexternal.code.tex
INPUT /usr/share/texmf-dist/tex/generic/pgf/basiclayer/pgfcorelayers.code.tex
INPUT /usr/share/texmf-dist/tex/generic/pgf/basiclayer/pgfcoretransparency.code.tex
INPUT /usr/share/texmf-dist/tex/generic/pgf/basiclayer/pgfcorepatterns.code.tex
INPUT /usr/share/texmf-dist/tex/generic/pgf/basiclayer/pgfcorerdf.code.tex
INPUT /usr/share/texmf-dist/tex/generic/pgf/modules/pgfmoduleshapes.code.tex
INPUT /usr/share/texmf-dist/tex/generic/pgf/modules/pgfmoduleplot.code.tex
INPUT /usr/share/texmf-dist/tex/latex/pgf/compatibility/pgfcomp-version-0-65.sty
INPUT /usr/share/texmf-dist/tex/latex/pgf/compatibility/pgfcomp-version-0-65.sty
INPUT /usr/share/texmf-dist/tex/latex/pgf/compatibility/pgfcomp-version-1-18.sty
INPUT /usr/share/texmf-dist/tex/latex/pgf/compatibility/pgfcomp-version-1-18.sty
INPUT /usr/share/texmf-dist/tex/latex/pgf/utilities/pgffor.sty
INPUT /usr/share/texmf-dist/tex/latex/pgf/utilities/pgffor.sty
INPUT /usr/share/texmf-dist/tex/latex/pgf/utilities/pgfkeys.sty
INPUT /usr/share/texmf-dist/tex/latex/pgf/utilities/pgfkeys.sty
INPUT /usr/share/texmf-dist/tex/generic/pgf/utilities/pgfkeys.code.tex
INPUT /usr/share/texmf-dist/tex/generic/pgf/utilities/pgfkeys.code.tex
INPUT /usr/share/texmf-dist/tex/latex/pgf/math/pgfmath.sty
INPUT /usr/share/texmf-dist/tex/latex/pgf/math/pgfmath.sty
INPUT /usr/share/texmf-dist/tex/generic/pgf/math/pgfmath.code.tex
INPUT /usr/share/texmf-dist/tex/generic/pgf/math/pgfmath.code.tex
INPUT /usr/share/texmf-dist/tex/generic/pgf/utilities/pgffor.code.tex
INPUT /usr/share/texmf-dist/tex/generic/pgf/utilities/pgffor.code.tex
INPUT /usr/share/texmf-dist/tex/generic/pgf/math/pgfmath.code.tex
INPUT /usr/share/texmf-dist/tex/generic/pgf/frontendlayer/tikz/tikz.code.tex
INPUT /usr/share/texmf-dist/tex/generic/pgf/frontendlayer/tikz/tikz.code.tex
INPUT /usr/share/texmf-dist/tex/generic/pgf/libraries/pgflibraryplothandlers.code.tex
INPUT /usr/share/texmf-dist/tex/generic/pgf/libraries/pgflibraryplothandlers.code.tex
INPUT /usr/share/texmf-dist/tex/generic/pgf/modules/pgfmodulematrix.code.tex
INPUT /usr/share/texmf-dist/tex/generic/pgf/frontendlayer/tikz/libraries/tikzlibrarytopaths.code.tex
INPUT /usr/share/texmf-dist/tex/generic/pgf/frontendlayer/tikz/libraries/tikzlibrarytopaths.code.tex
INPUT /usr/share/texmf-dist/tex/latex/circuitikz/circuitikz.sty
INPUT /usr/share/texmf-dist/tex/latex/circuitikz/circuitikz.sty
INPUT /usr/share/texmf-dist/tex/generic/pgf/frontendlayer/tikz/libraries/tikzlibrarycalc.code.tex
INPUT /usr/share/texmf-dist/tex/generic/pgf/frontendlayer/tikz/libraries/tikzlibrarycalc.code.tex
INPUT /usr/share/texmf-dist/tex/generic/pgf/libraries/pgflibraryarrows.code.tex
INPUT /usr/share/texmf-dist/tex/generic/pgf/libraries/pgflibraryarrows.code.tex
INPUT /usr/share/texmf-dist/tex/generic/circuitikz/pgfcirc.defines.tex
INPUT /usr/share/texmf-dist/tex/generic/circuitikz/pgfcircutils.tex
INPUT /usr/share/texmf-dist/tex/generic/circuitikz/pgfcircshapes.tex
INPUT /usr/share/texmf-dist/tex/generic/circuitikz/pgfcircmonopoles.tex
INPUT /usr/share/texmf-dist/tex/generic/circuitikz/pgfcircbipoles.tex
INPUT /usr/share/texmf-dist/tex/generic/circuitikz/pgfcirctripoles.tex
INPUT /usr/share/texmf-dist/tex/generic/circuitikz/pgfcircquadpoles.tex
INPUT /usr/share/texmf-dist/tex/generic/circuitikz/pgfcirclabel.tex
INPUT /usr/share/texmf-dist/tex/generic/circuitikz/pgfcircvoltage.tex
INPUT /usr/share/texmf-dist/tex/generic/circuitikz/pgfcirccurrent.tex
INPUT /usr/share/texmf-dist/tex/generic/circuitikz/pgfcircflow.tex
INPUT /usr/share/texmf-dist/tex/generic/circuitikz/pgfcircpath.tex
INPUT /home/jhony75/Documents/Faculdade/Eletrotecnica/Eletrotecnica.aux
INPUT /home/jhony75/Documents/Faculdade/Eletrotecnica/Eletrotecnica.aux
OUTPUT /home/jhony75/Documents/Faculdade/Eletrotecnica/Eletrotecnica.aux
INPUT /usr/share/texmf-dist/tex/latex/ly1/ly1ptm.fd
INPUT /usr/share/texmf-dist/tex/latex/ly1/ly1ptm.fd
INPUT /usr/share/texmf-dist/tex/context/base/mkii/supp-pdf.mkii
INPUT /usr/share/texmf-dist/tex/context/base/mkii/supp-pdf.mkii
INPUT /usr/share/texmf-dist/tex/latex/oberdiek/epstopdf-base.sty
INPUT /usr/share/texmf-dist/tex/latex/oberdiek/epstopdf-base.sty
INPUT /usr/share/texmf-dist/tex/generic/oberdiek/infwarerr.sty
INPUT /usr/share/texmf-dist/tex/generic/oberdiek/infwarerr.sty
INPUT /usr/share/texmf-dist/tex/latex/oberdiek/grfext.sty
INPUT /usr/share/texmf-dist/tex/latex/oberdiek/grfext.sty
INPUT /usr/share/texmf-dist/tex/generic/oberdiek/kvdefinekeys.sty
INPUT /usr/share/texmf-dist/tex/generic/oberdiek/kvdefinekeys.sty
INPUT /usr/share/texmf-dist/tex/generic/oberdiek/ltxcmds.sty
INPUT /usr/share/texmf-dist/tex/generic/oberdiek/ltxcmds.sty
INPUT /usr/share/texmf-dist/tex/latex/oberdiek/kvoptions.sty
INPUT /usr/share/texmf-dist/tex/latex/oberdiek/kvoptions.sty
INPUT /usr/share/texmf-dist/tex/generic/oberdiek/kvsetkeys.sty
INPUT /usr/share/texmf-dist/tex/generic/oberdiek/kvsetkeys.sty
INPUT /usr/share/texmf-dist/tex/generic/oberdiek/etexcmds.sty
INPUT /usr/share/texmf-dist/tex/generic/oberdiek/etexcmds.sty
INPUT /usr/share/texmf-dist/tex/generic/oberdiek/pdftexcmds.sty
INPUT /usr/share/texmf-dist/tex/generic/oberdiek/pdftexcmds.sty
INPUT /usr/share/texmf-dist/tex/latex/latexconfig/epstopdf-sys.cfg
INPUT /usr/share/texmf-dist/tex/latex/latexconfig/epstopdf-sys.cfg
INPUT /usr/share/texmf-dist/fonts/tfm/jknappen/ec/ecrm1728.tfm
INPUT /usr/share/texmf-dist/fonts/tfm/jknappen/ec/ecrm1200.tfm
INPUT /usr/share/texmf-dist/fonts/tfm/public/cm/cmr12.tfm
INPUT /usr/share/texmf-dist/fonts/tfm/public/cm/cmr8.tfm
INPUT /usr/share/texmf-dist/fonts/tfm/public/cm/cmr6.tfm
INPUT /usr/share/texmf-dist/fonts/tfm/public/cm/cmmi12.tfm
INPUT /usr/share/texmf-dist/fonts/tfm/public/cm/cmmi8.tfm
INPUT /usr/share/texmf-dist/fonts/tfm/public/cm/cmmi6.tfm
INPUT /usr/share/texmf-dist/fonts/tfm/public/cm/cmsy10.tfm
INPUT /usr/share/texmf-dist/fonts/tfm/public/cm/cmsy8.tfm
INPUT /usr/share/texmf-dist/fonts/tfm/public/cm/cmsy6.tfm
OUTPUT /home/jhony75/Documents/Faculdade/Eletrotecnica/Eletrotecnica.pdf
INPUT /var/lib/texmf/fonts/map/pdftex/updmap/pdftex.map
INPUT /usr/share/texmf-dist/fonts/tfm/jknappen/ec/ecrm2488.tfm
INPUT /usr/share/texmf-dist/fonts/tfm/jknappen/ec/ecbx2488.tfm
INPUT /home/jhony75/Documents/Faculdade/Eletrotecnica/Eletrotecnica.toc
INPUT /home/jhony75/Documents/Faculdade/Eletrotecnica/Eletrotecnica.toc
INPUT /usr/share/texmf-dist/fonts/tfm/jknappen/ec/ecbx1000.tfm
OUTPUT /home/jhony75/Documents/Faculdade/Eletrotecnica/Eletrotecnica.toc
INPUT /usr/share/texmf-dist/fonts/tfm/jknappen/ec/ecsl1000.tfm
INPUT /usr/share/texmf-dist/fonts/tfm/jknappen/ec/ecrm2074.tfm
INPUT /usr/share/texmf-dist/fonts/tfm/jknappen/ec/ecbx2074.tfm
INPUT /usr/share/texmf-dist/fonts/tfm/jknappen/ec/ecrm1440.tfm
INPUT /usr/share/texmf-dist/fonts/tfm/jknappen/ec/ecbx1440.tfm
INPUT /usr/share/texmf-dist/fonts/tfm/jknappen/ec/ecbx1200.tfm
INPUT /home/jhony75/Documents/Faculdade/Eletrotecnica/Eletrotecnica.aux
INPUT /usr/share/texmf-dist/fonts/enc/dvips/cm-super/cm-super-t1.enc
INPUT /usr/share/texmf-dist/fonts/type1/public/amsfonts/cm/cmmi10.pfb
INPUT /usr/share/texmf-dist/fonts/type1/public/amsfonts/cm/cmmi5.pfb
INPUT /usr/share/texmf-dist/fonts/type1/public/amsfonts/cm/cmmi7.pfb
INPUT /usr/share/texmf-dist/fonts/type1/public/amsfonts/cm/cmr10.pfb
INPUT /usr/share/texmf-dist/fonts/type1/public/amsfonts/cm/cmr7.pfb
INPUT /usr/share/texmf-dist/fonts/type1/public/amsfonts/cm/cmsy10.pfb
INPUT /usr/share/texmf-dist/fonts/type1/public/amsfonts/cm/cmsy7.pfb
INPUT /usr/share/texmf-dist/fonts/type1/public/cm-super/sfbx1000.pfb
INPUT /usr/share/texmf-dist/fonts/type1/public/cm-super/sfbx1200.pfb
INPUT /usr/share/texmf-dist/fonts/type1/public/cm-super/sfbx1440.pfb
INPUT /usr/share/texmf-dist/fonts/type1/public/cm-super/sfbx2074.pfb
INPUT /usr/share/texmf-dist/fonts/type1/public/cm-super/sfbx2488.pfb
INPUT /usr/share/texmf-dist/fonts/type1/public/cm-super/sfrm1000.pfb
INPUT /usr/share/texmf-dist/fonts/type1/public/cm-super/sfrm1200.pfb
INPUT /usr/share/texmf-dist/fonts/type1/public/cm-super/sfrm1728.pfb
INPUT /usr/share/texmf-dist/fonts/type1/public/cm-super/sfsl1000.pfb
