\babel@toc {brazilian}{}
\contentsline {chapter}{\numberline {1}Corrente El\IeC {\'e}trica}{II}% 
\contentsline {section}{\numberline {1.1}Intensidade de Corrente El\IeC {\'e}trica}{II}% 
\contentsline {section}{\numberline {1.2}Resist\IeC {\^e}ncia El\IeC {\'e}trica e a Lei de Ohm}{II}% 
\contentsline {subsection}{\numberline {1.2.1}Lei de Ohm}{II}% 
\contentsline {chapter}{\numberline {2}Associa\IeC {\c c}\IeC {\~a}o de Resistores}{III}% 
\contentsline {section}{\numberline {2.1}Associa\IeC {\c c}\IeC {\~a}o em S\IeC {\'e}rie}{III}% 
\contentsline {section}{\numberline {2.2}Associa\IeC {\c c}\IeC {\~a}o em Paralelo}{IV}% 
