\relax 
\catcode `"\active 
\babel@aux{brazilian}{}
\@writefile{toc}{\contentsline {chapter}{\numberline {1}Corrente El\IeC {\'e}trica}{II}\protected@file@percent }
\@writefile{lof}{\addvspace {10\p@ }}
\@writefile{lot}{\addvspace {10\p@ }}
\@writefile{toc}{\contentsline {section}{\numberline {1.1}Intensidade de Corrente El\IeC {\'e}trica}{II}\protected@file@percent }
\@writefile{toc}{\contentsline {section}{\numberline {1.2}Resist\IeC {\^e}ncia El\IeC {\'e}trica e a Lei de Ohm}{II}\protected@file@percent }
\@writefile{toc}{\contentsline {subsection}{\numberline {1.2.1}Lei de Ohm}{II}\protected@file@percent }
\@writefile{toc}{\contentsline {chapter}{\numberline {2}Associa\IeC {\c c}\IeC {\~a}o de Resistores}{III}\protected@file@percent }
\@writefile{lof}{\addvspace {10\p@ }}
\@writefile{lot}{\addvspace {10\p@ }}
\@writefile{toc}{\contentsline {section}{\numberline {2.1}Associa\IeC {\c c}\IeC {\~a}o em S\IeC {\'e}rie}{III}\protected@file@percent }
\@writefile{toc}{\contentsline {section}{\numberline {2.2}Associa\IeC {\c c}\IeC {\~a}o em Paralelo}{IV}\protected@file@percent }
\global\@namedef{scr@dte@chapter@lastmaxnumwidth}{10.3474pt}
