\babel@toc {brazilian}{}
\contentsline {chapter}{\numberline {1}Identifica\IeC {\c c}\IeC {\~a}o}{2}{chapter.1}% 
\contentsline {paragraph}{ }{2}{section*.2}% 
\contentsline {chapter}{\numberline {2}Introdu\IeC {\c c}\IeC {\~a}o}{3}{chapter.2}% 
\contentsline {chapter}{\numberline {3}CMOS}{4}{chapter.3}% 
\contentsline {section}{\numberline {3.1}O que \IeC {\'e}}{4}{section.3.1}% 
\contentsline {section}{\numberline {3.2}Aplica\IeC {\c c}\IeC {\~o}es}{5}{section.3.2}% 
\contentsline {section}{\numberline {3.3}Vantagens}{5}{section.3.3}% 
\contentsline {section}{\numberline {3.4}Desvantagens}{5}{section.3.4}% 
\contentsline {chapter}{\numberline {4}TTL}{6}{chapter.4}% 
\contentsline {section}{\numberline {4.1}O que \IeC {\'e}}{6}{section.4.1}% 
\contentsline {section}{\numberline {4.2}Aplica\IeC {\c c}\IeC {\~o}es}{7}{section.4.2}% 
\contentsline {section}{\numberline {4.3}Vantagens}{7}{section.4.3}% 
\contentsline {section}{\numberline {4.4}Desvantagens}{7}{section.4.4}% 
\contentsline {chapter}{\numberline {5}Conclus\IeC {\~a}o}{8}{chapter.5}% 
\contentsline {chapter}{\numberline {6}Fontes}{9}{chapter.6}% 
