\relax 
\catcode `"\active 
\babel@aux{brazilian}{}
\@writefile{toc}{\contentsline {chapter}{\numberline {1}Vari\IeC {\'a}veis Digitais e Anal\IeC {\'o}gicas}{II}\protected@file@percent }
\@writefile{lof}{\addvspace {10\p@ }}
\@writefile{lot}{\addvspace {10\p@ }}
\@writefile{toc}{\contentsline {section}{\numberline {1.1}Vari\IeC {\'a}veis Anal\IeC {\'o}gicas}{II}\protected@file@percent }
\@writefile{toc}{\contentsline {section}{\numberline {1.2}Vari\IeC {\'a}veis Digitais.}{II}\protected@file@percent }
\@writefile{toc}{\contentsline {chapter}{\numberline {2}Sistemas num\IeC {\'e}ricos}{III}\protected@file@percent }
\@writefile{lof}{\addvspace {10\p@ }}
\@writefile{lot}{\addvspace {10\p@ }}
\@writefile{toc}{\contentsline {section}{\numberline {2.1}Sistema Decimal}{III}\protected@file@percent }
\@writefile{toc}{\contentsline {section}{\numberline {2.2}Sistema Bin\IeC {\'a}rio}{III}\protected@file@percent }
\@writefile{toc}{\contentsline {subsection}{\numberline {2.2.1}Convers\IeC {\~a}o Decimal - bin\IeC {\'a}rio}{III}\protected@file@percent }
\@writefile{toc}{\contentsline {section}{\numberline {2.3}Sistema de numera\IeC {\c c}\IeC {\~a}o octal}{III}\protected@file@percent }
\@writefile{toc}{\contentsline {subsection}{\numberline {2.3.1}Convers\IeC {\~a}o decimal - octal}{III}\protected@file@percent }
\@writefile{toc}{\contentsline {subsection}{\numberline {2.3.2}Convers\IeC {\~a}o octal - bin\IeC {\'a}rio}{III}\protected@file@percent }
\@writefile{toc}{\contentsline {section}{\numberline {2.4}Sistema Hexadecimal}{IV}\protected@file@percent }
\@writefile{toc}{\contentsline {subsection}{\numberline {2.4.1}Convers\IeC {\~a}o hexadecimal - decimal}{IV}\protected@file@percent }
\@writefile{toc}{\contentsline {chapter}{\numberline {3}C\IeC {\'o}digos}{V}\protected@file@percent }
\@writefile{lof}{\addvspace {10\p@ }}
\@writefile{lot}{\addvspace {10\p@ }}
\@writefile{toc}{\contentsline {section}{\numberline {3.1}C\IeC {\'o}digo BCD}{V}\protected@file@percent }
\@writefile{toc}{\contentsline {subsection}{\numberline {3.1.1}Byte}{V}\protected@file@percent }
\@writefile{toc}{\contentsline {subsection}{\numberline {3.1.2}C\IeC {\'o}digos Alfanum\IeC {\'e}ricos}{V}\protected@file@percent }
\@writefile{toc}{\contentsline {section}{\numberline {3.2}Exercicios}{V}\protected@file@percent }
\@writefile{toc}{\contentsline {chapter}{\numberline {4}Gates - And, Or e Not}{VI}\protected@file@percent }
\@writefile{lof}{\addvspace {10\p@ }}
\@writefile{lot}{\addvspace {10\p@ }}
\@writefile{toc}{\contentsline {section}{\numberline {4.1}a)$ A * B * C + D $}{VI}\protected@file@percent }
\@writefile{toc}{\contentsline {chapter}{\numberline {5}Mapa de Carnout}{VII}\protected@file@percent }
\@writefile{lof}{\addvspace {10\p@ }}
\@writefile{lot}{\addvspace {10\p@ }}
\global\@namedef{scr@dte@chapter@lastmaxnumwidth}{10.3474pt}
