\relax 
\catcode `"\active 
\babel@aux{brazilian}{}
\@writefile{toc}{\contentsline {chapter}{\numberline {1}Identifica\IeC {\c c}\IeC {\~a}o}{1}\protected@file@percent }
\@writefile{lof}{\addvspace {10\p@ }}
\@writefile{lot}{\addvspace {10\p@ }}
\@writefile{toc}{\contentsline {chapter}{\numberline {2}Exerc\IeC {\'\i }cios}{2}\protected@file@percent }
\@writefile{lof}{\addvspace {10\p@ }}
\@writefile{lot}{\addvspace {10\p@ }}
