\relax 
\providecommand\hyper@newdestlabel[2]{}
\catcode `"\active 
\providecommand\HyperFirstAtBeginDocument{\AtBeginDocument}
\HyperFirstAtBeginDocument{\ifx\hyper@anchor\@undefined
\global\let\oldcontentsline\contentsline
\gdef\contentsline#1#2#3#4{\oldcontentsline{#1}{#2}{#3}}
\global\let\oldnewlabel\newlabel
\gdef\newlabel#1#2{\newlabelxx{#1}#2}
\gdef\newlabelxx#1#2#3#4#5#6{\oldnewlabel{#1}{{#2}{#3}}}
\AtEndDocument{\ifx\hyper@anchor\@undefined
\let\contentsline\oldcontentsline
\let\newlabel\oldnewlabel
\fi}
\fi}
\global\let\hyper@last\relax 
\gdef\HyperFirstAtBeginDocument#1{#1}
\providecommand\HyField@AuxAddToFields[1]{}
\providecommand\HyField@AuxAddToCoFields[2]{}
\babel@aux{brazilian}{}
\@writefile{toc}{\contentsline {chapter}{\numberline {1}Refer\IeC {\^e}ncias}{2}{chapter.1}\protected@file@percent }
\@writefile{lof}{\addvspace {10\p@ }}
\@writefile{lot}{\addvspace {10\p@ }}
\@writefile{toc}{\contentsline {chapter}{\numberline {2}N\IeC {\'u}meros Complexos}{3}{chapter.2}\protected@file@percent }
\@writefile{lof}{\addvspace {10\p@ }}
\@writefile{lot}{\addvspace {10\p@ }}
\@writefile{toc}{\contentsline {section}{\numberline {2.1}Forma Alg\IeC {\'e}brica de um N\IeC {\'u}mero Complexo}{3}{section.2.1}\protected@file@percent }
\@writefile{toc}{\contentsline {section}{\numberline {2.2}Conjugado}{4}{section.2.2}\protected@file@percent }
\@writefile{toc}{\contentsline {section}{\numberline {2.3}Exerc\IeC {\'\i }cios}{4}{section.2.3}\protected@file@percent }
\@writefile{toc}{\contentsline {section}{\numberline {2.4}Opera\IeC {\c c}\IeC {\~o}es com N\IeC {\'u}meros Complexos}{4}{section.2.4}\protected@file@percent }
\@writefile{toc}{\contentsline {subsubsection}{Adi\IeC {\c c}\IeC {\~a}o}{4}{section*.3}\protected@file@percent }
\@writefile{toc}{\contentsline {paragraph}{}{4}{section*.4}\protected@file@percent }
\@writefile{toc}{\contentsline {section}{\numberline {2.5}Pot\IeC {\^e}ncias de I}{4}{section.2.5}\protected@file@percent }
\@writefile{toc}{\contentsline {paragraph}{ }{4}{section*.5}\protected@file@percent }
\@writefile{toc}{\contentsline {chapter}{\numberline {3}Representa\IeC {\c c}\IeC {\~a}o Geom\IeC {\'e}trica de um n\IeC {\textordmasculine } Complexo}{5}{chapter.3}\protected@file@percent }
\@writefile{lof}{\addvspace {10\p@ }}
\@writefile{lot}{\addvspace {10\p@ }}
\@writefile{toc}{\contentsline {chapter}{\numberline {4}M\IeC {\'o}dulos}{6}{chapter.4}\protected@file@percent }
\@writefile{lof}{\addvspace {10\p@ }}
\@writefile{lot}{\addvspace {10\p@ }}
\@writefile{toc}{\contentsline {section}{\numberline {4.1}Exerc\IeC {\'\i }cios}{6}{section.4.1}\protected@file@percent }
\@writefile{toc}{\contentsline {chapter}{\numberline {5}Forma Trigonom\IeC {\'e}trica de um N\IeC {\'u}mero Complexo}{7}{chapter.5}\protected@file@percent }
\@writefile{lof}{\addvspace {10\p@ }}
\@writefile{lot}{\addvspace {10\p@ }}
\global\@namedef{scr@dte@chapter@lastmaxnumwidth}{10.3474pt}
