# Fdb version 3
["pdflatex"] 1557184188 "/home/jhony75/Documents/Faculdade/AlgebraLinear/NúmerosComplexos.tex" "/home/jhony75/Documents/Faculdade/AlgebraLinear/NúmerosComplexos.pdf" "NúmerosComplexos" 1557184188
  "/home/jhony75/Documents/Faculdade/AlgebraLinear/NúmerosComplexos.aux" 1557184188 2927 c484f12936f52e16563d80e7dbb577dc ""
  "/home/jhony75/Documents/Faculdade/AlgebraLinear/NúmerosComplexos.tex" 1557184188 6894 a5faddd0570d1755dad6602ea4fab5e8 ""
  "/usr/share/texmf-dist/fonts/enc/dvips/cm-super/cm-super-t1.enc" 1550406775 2971 def0b6c1f0b107b3b936def894055589 ""
  "/usr/share/texmf-dist/fonts/map/fontname/texfonts.map" 1550406775 3332 103109f5612ad95229751940c61aada0 ""
  "/usr/share/texmf-dist/fonts/tfm/adobe/times/ptmr8t.tfm" 1550406775 6672 e3ab9e37e925f3045c9005e6d1473d56 ""
  "/usr/share/texmf-dist/fonts/tfm/jknappen/ec/ecbx0700.tfm" 1550406775 3584 ca0c423beaacd28d53ddce5a826cd558 ""
  "/usr/share/texmf-dist/fonts/tfm/jknappen/ec/ecbx1000.tfm" 1550406775 3584 2d666ecf6d466d8b007246bc2f94d9da ""
  "/usr/share/texmf-dist/fonts/tfm/jknappen/ec/ecbx1440.tfm" 1550406775 3584 13049b61b922a28b158a38aeff75ee9b ""
  "/usr/share/texmf-dist/fonts/tfm/jknappen/ec/ecbx2074.tfm" 1550406775 3584 7666d038713b9e38abb5c2e0f6972188 ""
  "/usr/share/texmf-dist/fonts/tfm/jknappen/ec/ecbx2488.tfm" 1550406775 3584 0181dbc4d429c3ba4e30feba37b5df96 ""
  "/usr/share/texmf-dist/fonts/tfm/jknappen/ec/ecrm0700.tfm" 1550406775 3584 cf973739aac7ab6247f9150296af7954 ""
  "/usr/share/texmf-dist/fonts/tfm/jknappen/ec/ecrm1000.tfm" 1550406775 3584 adb004a0c8e7c46ee66cad73671f37b4 ""
  "/usr/share/texmf-dist/fonts/tfm/jknappen/ec/ecrm1200.tfm" 1550406775 3584 f80ddd985bd00e29e9a6047ebd9d4781 ""
  "/usr/share/texmf-dist/fonts/tfm/jknappen/ec/ecrm1440.tfm" 1550406775 3584 3169d30142b88a27d4ab0e3468e963a2 ""
  "/usr/share/texmf-dist/fonts/tfm/jknappen/ec/ecrm1728.tfm" 1550406775 3584 3c76ccb63eda935a68ba65ba9da29f1a ""
  "/usr/share/texmf-dist/fonts/tfm/jknappen/ec/ecrm2074.tfm" 1550406775 3584 8e2870ec7aa9776f59654942b0923f51 ""
  "/usr/share/texmf-dist/fonts/tfm/jknappen/ec/ecrm2488.tfm" 1550406775 3584 406ad7b70d9a41f7833f92b6313150c8 ""
  "/usr/share/texmf-dist/fonts/tfm/jknappen/ec/ecsl1000.tfm" 1550406775 3584 bf02fd9e8bc8c375f218c700cabb9a92 ""
  "/usr/share/texmf-dist/fonts/tfm/jknappen/ec/ecti1000.tfm" 1550406775 3072 3bce340d4c075dffe6d4ec732b4c32fe ""
  "/usr/share/texmf-dist/fonts/tfm/public/cm/cmmi12.tfm" 1550406775 1524 4414a8315f39513458b80dfc63bff03a ""
  "/usr/share/texmf-dist/fonts/tfm/public/cm/cmmi6.tfm" 1550406775 1512 f21f83efb36853c0b70002322c1ab3ad ""
  "/usr/share/texmf-dist/fonts/tfm/public/cm/cmmi8.tfm" 1550406775 1520 eccf95517727cb11801f4f1aee3a21b4 ""
  "/usr/share/texmf-dist/fonts/tfm/public/cm/cmr12.tfm" 1550406775 1288 655e228510b4c2a1abe905c368440826 ""
  "/usr/share/texmf-dist/fonts/tfm/public/cm/cmr17.tfm" 1550406775 1292 296a67155bdbfc32aa9c636f21e91433 ""
  "/usr/share/texmf-dist/fonts/tfm/public/cm/cmr6.tfm" 1550406775 1300 b62933e007d01cfd073f79b963c01526 ""
  "/usr/share/texmf-dist/fonts/tfm/public/cm/cmr8.tfm" 1550406775 1292 21c1c5bfeaebccffdb478fd231a0997d ""
  "/usr/share/texmf-dist/fonts/tfm/public/cm/cmsy10.tfm" 1550406775 1124 6c73e740cf17375f03eec0ee63599741 ""
  "/usr/share/texmf-dist/fonts/tfm/public/cm/cmsy6.tfm" 1550406775 1116 933a60c408fc0a863a92debe84b2d294 ""
  "/usr/share/texmf-dist/fonts/tfm/public/cm/cmsy8.tfm" 1550406775 1120 8b7d695260f3cff42e636090a8002094 ""
  "/usr/share/texmf-dist/fonts/type1/public/amsfonts/cm/cmex10.pfb" 1550406775 30251 6afa5cb1d0204815a708a080681d4674 ""
  "/usr/share/texmf-dist/fonts/type1/public/amsfonts/cm/cmmi10.pfb" 1550406775 36299 5f9df58c2139e7edcf37c8fca4bd384d ""
  "/usr/share/texmf-dist/fonts/type1/public/amsfonts/cm/cmmi7.pfb" 1550406775 36281 c355509802a035cadc5f15869451dcee ""
  "/usr/share/texmf-dist/fonts/type1/public/amsfonts/cm/cmr10.pfb" 1550406775 35752 024fb6c41858982481f6968b5fc26508 ""
  "/usr/share/texmf-dist/fonts/type1/public/amsfonts/cm/cmr7.pfb" 1550406775 32762 224316ccc9ad3ca0423a14971cfa7fc1 ""
  "/usr/share/texmf-dist/fonts/type1/public/amsfonts/cm/cmsy10.pfb" 1550406775 32569 5e5ddc8df908dea60932f3c484a54c0d ""
  "/usr/share/texmf-dist/fonts/type1/public/amsfonts/cm/cmsy7.pfb" 1550406775 32716 08e384dc442464e7285e891af9f45947 ""
  "/usr/share/texmf-dist/fonts/type1/public/cm-super/sfbx0700.pfb" 1550406775 144215 c89c56d5c5b828c5c1657b4326c29df7 ""
  "/usr/share/texmf-dist/fonts/type1/public/cm-super/sfbx1000.pfb" 1550406775 145408 43d44302ca7d82d487f511f83e309505 ""
  "/usr/share/texmf-dist/fonts/type1/public/cm-super/sfbx1440.pfb" 1550406775 135942 859a90cad7494a1e79c94baf546d7de5 ""
  "/usr/share/texmf-dist/fonts/type1/public/cm-super/sfbx2074.pfb" 1550406775 140194 627cc7f36c05b80e25d178974ccb3442 ""
  "/usr/share/texmf-dist/fonts/type1/public/cm-super/sfbx2488.pfb" 1550406775 135938 299ac3a69892db3b7674a8b2543b0a77 ""
  "/usr/share/texmf-dist/fonts/type1/public/cm-super/sfrm0700.pfb" 1550406775 154599 ded6d7c21788a8930eadc7fef7518942 ""
  "/usr/share/texmf-dist/fonts/type1/public/cm-super/sfrm1000.pfb" 1550406775 138258 6525c253f16cededa14c7fd0da7f67b2 ""
  "/usr/share/texmf-dist/fonts/type1/public/cm-super/sfrm1200.pfb" 1550406775 136101 f533469f523533d38317ab5729d00c8a ""
  "/usr/share/texmf-dist/fonts/type1/public/cm-super/sfrm1728.pfb" 1550406775 131438 3aa300b3e40e5c8ba7b4e5c6cebc5dd6 ""
  "/usr/share/texmf-dist/fonts/type1/public/cm-super/sfsl1000.pfb" 1550406775 156075 f7390bd7a6232a5277f5784aabbb7426 ""
  "/usr/share/texmf-dist/fonts/type1/public/cm-super/sfti1000.pfb" 1550406775 186554 e8f0fa8ca05e038f257a06405232745f ""
  "/usr/share/texmf-dist/tex/context/base/mkii/supp-pdf.mkii" 1550406775 71627 94eb9990bed73c364d7f53f960cc8c5b ""
  "/usr/share/texmf-dist/tex/generic/babel-portuges/portuges.ldf" 1550406775 6605 2bd2937f1ce929b4a1367cc2d320364e ""
  "/usr/share/texmf-dist/tex/generic/babel/babel.def" 1550406775 74097 730193adbb112990f38051a05f35ac11 ""
  "/usr/share/texmf-dist/tex/generic/babel/babel.sty" 1550406775 16329 4c42e43c85185e6cb0936a628ade375c ""
  "/usr/share/texmf-dist/tex/generic/babel/switch.def" 1550406775 13310 fcb0ad08386d450f0c718feed9fe2fee ""
  "/usr/share/texmf-dist/tex/generic/babel/txtbabel.def" 1550406775 7435 6c566fc19b3503b2b2da8bb4550f2b58 ""
  "/usr/share/texmf-dist/tex/generic/ifxetex/ifxetex.sty" 1550406775 1458 43ab4710dc82f3edeabecd0d099626b2 ""
  "/usr/share/texmf-dist/tex/generic/oberdiek/gettitlestring.sty" 1550406775 8237 3b62ef1f7e2c23a328c814b3893bc11f ""
  "/usr/share/texmf-dist/tex/generic/oberdiek/hobsub-generic.sty" 1550406775 185392 b99a6d53180e04300c35e18725f31231 ""
  "/usr/share/texmf-dist/tex/generic/oberdiek/hobsub-hyperref.sty" 1550406775 70864 bcd5b216757bd619ae692a151d90085d ""
  "/usr/share/texmf-dist/tex/generic/oberdiek/ifluatex.sty" 1550406775 7324 2310d1247db0114eb4726807c8837a0e ""
  "/usr/share/texmf-dist/tex/generic/oberdiek/ifpdf.sty" 1550406775 1300 96620a7d94bc0ceb261d968770ce8315 ""
  "/usr/share/texmf-dist/tex/generic/oberdiek/ifvtex.sty" 1550406775 6797 90b7f83b0ad46826bc16058b1e3d48df ""
  "/usr/share/texmf-dist/tex/generic/pgf/basiclayer/pgfcore.code.tex" 1550406775 969 03f6c464fd951d8725b3a4959f4c6de0 ""
  "/usr/share/texmf-dist/tex/generic/pgf/basiclayer/pgfcorearrows.code.tex" 1550406775 43820 bc6cf5aa959817914ace33f5c6232161 ""
  "/usr/share/texmf-dist/tex/generic/pgf/basiclayer/pgfcoreexternal.code.tex" 1550406775 19327 d5d8b64d8e8902e0467e95a8e7c7696a ""
  "/usr/share/texmf-dist/tex/generic/pgf/basiclayer/pgfcoregraphicstate.code.tex" 1550406775 6038 d639d02574be9a72f3c602c2a3510e02 ""
  "/usr/share/texmf-dist/tex/generic/pgf/basiclayer/pgfcoreimage.code.tex" 1550406775 6948 284bbe3c9a7ca0a826c1c03895e69b9f ""
  "/usr/share/texmf-dist/tex/generic/pgf/basiclayer/pgfcorelayers.code.tex" 1550406775 4883 a6f3eb1f71d8c4affaf43a169828b043 ""
  "/usr/share/texmf-dist/tex/generic/pgf/basiclayer/pgfcoreobjects.code.tex" 1550406775 2544 3b1b198fd49f01e328adc9162a07b213 ""
  "/usr/share/texmf-dist/tex/generic/pgf/basiclayer/pgfcorepathconstruct.code.tex" 1550406775 44195 134d5eb267e64d2a6b6dc75008e7c5fd ""
  "/usr/share/texmf-dist/tex/generic/pgf/basiclayer/pgfcorepathprocessing.code.tex" 1550406775 17311 3092579be20ef0f229c42ad3f09da85c ""
  "/usr/share/texmf-dist/tex/generic/pgf/basiclayer/pgfcorepathusage.code.tex" 1550406775 21302 d6c4b340248adbe650ebf6ca76bdccca ""
  "/usr/share/texmf-dist/tex/generic/pgf/basiclayer/pgfcorepatterns.code.tex" 1550406775 9541 9d1ee06aeaf948a30f150e450eb2d944 ""
  "/usr/share/texmf-dist/tex/generic/pgf/basiclayer/pgfcorepoints.code.tex" 1550406775 35255 97ed2fc851a68f753ba47b7329c64cd6 ""
  "/usr/share/texmf-dist/tex/generic/pgf/basiclayer/pgfcorequick.code.tex" 1550406775 2965 502761b60f43ab2de5ecb2f4625163ae ""
  "/usr/share/texmf-dist/tex/generic/pgf/basiclayer/pgfcorerdf.code.tex" 1550406775 5196 f8c5c775d4d6e2cb050392127cabda72 ""
  "/usr/share/texmf-dist/tex/generic/pgf/basiclayer/pgfcorescopes.code.tex" 1550406775 20769 880132a4052c1f4e99080e076592048d ""
  "/usr/share/texmf-dist/tex/generic/pgf/basiclayer/pgfcoreshade.code.tex" 1550406775 21441 8406a93495c4d3eb13cc93ff27ed5594 ""
  "/usr/share/texmf-dist/tex/generic/pgf/basiclayer/pgfcoretransformations.code.tex" 1550406775 21989 266e83c51fe41eb8b8d5e6896dc71cc1 ""
  "/usr/share/texmf-dist/tex/generic/pgf/basiclayer/pgfcoretransparency.code.tex" 1550406775 8842 5cc856e132fac404805c6da091779283 ""
  "/usr/share/texmf-dist/tex/generic/pgf/frontendlayer/tikz/libraries/tikzlibrarytopaths.code.tex" 1550406775 11605 3cfbfe82478675de992de878ae30cba4 ""
  "/usr/share/texmf-dist/tex/generic/pgf/frontendlayer/tikz/tikz.code.tex" 1550406775 183429 981b5b2f94d03d6b4fb30ea9ab9200c8 ""
  "/usr/share/texmf-dist/tex/generic/pgf/libraries/pgflibraryplothandlers.code.tex" 1550406775 32995 a4d54c043ae5274ceaaddeb36ad43a6f ""
  "/usr/share/texmf-dist/tex/generic/pgf/math/pgfmath.code.tex" 1550406775 520 910e22995dad318235ba8e2fb536bf3a ""
  "/usr/share/texmf-dist/tex/generic/pgf/math/pgfmathcalc.code.tex" 1550406775 13416 940ea6971d7a65dc440d3479939c66ae ""
  "/usr/share/texmf-dist/tex/generic/pgf/math/pgfmathfloat.code.tex" 1550406775 95102 474fa5793f7f3067e17a5df9b98218c1 ""
  "/usr/share/texmf-dist/tex/generic/pgf/math/pgfmathfunctions.base.code.tex" 1550406775 9375 5adc70f722abd29fc250d59e0694b548 ""
  "/usr/share/texmf-dist/tex/generic/pgf/math/pgfmathfunctions.basic.code.tex" 1550406775 22069 7c21c42b15718ce922f36235be360490 ""
  "/usr/share/texmf-dist/tex/generic/pgf/math/pgfmathfunctions.code.tex" 1550406775 8210 a7be5b52ef3d2c087b7dc3d52898b67e ""
  "/usr/share/texmf-dist/tex/generic/pgf/math/pgfmathfunctions.comparison.code.tex" 1550406775 3534 c7f28fbac13616513e513efe93b8569b ""
  "/usr/share/texmf-dist/tex/generic/pgf/math/pgfmathfunctions.integerarithmetics.code.tex" 1550406775 3168 6189b7a28d77f4af65d3a14e7f03c083 ""
  "/usr/share/texmf-dist/tex/generic/pgf/math/pgfmathfunctions.misc.code.tex" 1550406775 9289 261407875b9dbb0194691c3eb893610f ""
  "/usr/share/texmf-dist/tex/generic/pgf/math/pgfmathfunctions.random.code.tex" 1550406775 7078 946ddf4a7e57219b6afdbad98eb6731b ""
  "/usr/share/texmf-dist/tex/generic/pgf/math/pgfmathfunctions.round.code.tex" 1550406775 2942 88413c69264c367e851538882cebd4ab ""
  "/usr/share/texmf-dist/tex/generic/pgf/math/pgfmathfunctions.trigonometric.code.tex" 1550406775 92284 dcf023dbaa84e6c50e11c2f79fe8cfa6 ""
  "/usr/share/texmf-dist/tex/generic/pgf/math/pgfmathparser.code.tex" 1550406775 36120 4aaaf2a5a988fdb79e316766ce090110 ""
  "/usr/share/texmf-dist/tex/generic/pgf/math/pgfmathutil.code.tex" 1550406775 7099 f44d505bae6c7c2b933cdd63441db4b9 ""
  "/usr/share/texmf-dist/tex/generic/pgf/modules/pgfmodulematrix.code.tex" 1550406775 20850 69672e3a68af93b0052e22743ab29325 ""
  "/usr/share/texmf-dist/tex/generic/pgf/modules/pgfmoduleplot.code.tex" 1550406775 16105 ad277a81d51151a43eada2f59e9c7f63 ""
  "/usr/share/texmf-dist/tex/generic/pgf/modules/pgfmoduleshapes.code.tex" 1550406775 43225 550a85f34e942cf510108872e6d17824 ""
  "/usr/share/texmf-dist/tex/generic/pgf/pgf.revision.tex" 1550406775 463 2e8ae5ae7338c3efc0d56a1c648a2938 ""
  "/usr/share/texmf-dist/tex/generic/pgf/systemlayer/pgf.cfg" 1550406775 929 c7e63c9d336acc04681ebf5d5974ff79 ""
  "/usr/share/texmf-dist/tex/generic/pgf/systemlayer/pgfsys-common-pdf.def" 1550406775 5554 eaa8269939dc6788f137cf082148c630 ""
  "/usr/share/texmf-dist/tex/generic/pgf/systemlayer/pgfsys-pdftex.def" 1550406775 13467 81cbde9036aeefde6ced72c35f65a11e ""
  "/usr/share/texmf-dist/tex/generic/pgf/systemlayer/pgfsys.code.tex" 1550406775 60336 26aaa566685b708e5bbad33b1fea85b6 ""
  "/usr/share/texmf-dist/tex/generic/pgf/systemlayer/pgfsysprotocol.code.tex" 1550406775 1895 a804dfc15a55439296d72fd96ed29ac7 ""
  "/usr/share/texmf-dist/tex/generic/pgf/systemlayer/pgfsyssoftpath.code.tex" 1550406775 7793 fb7bd1e1f7162b9073fa1d5356c99d44 ""
  "/usr/share/texmf-dist/tex/generic/pgf/utilities/pgffor.code.tex" 1550406775 22321 e57de05109d919549a27eaaf05c180fc ""
  "/usr/share/texmf-dist/tex/generic/pgf/utilities/pgfkeys.code.tex" 1550406775 36455 3b0b1cf51efce44b8791b93c27bbca48 ""
  "/usr/share/texmf-dist/tex/generic/pgf/utilities/pgfkeysfiltered.code.tex" 1550406775 33347 679274d4aa67c6bc8f5f234caa49367d ""
  "/usr/share/texmf-dist/tex/generic/pgf/utilities/pgfrcs.code.tex" 1550406775 2311 e273ccf1220640ccce91d49a21bd5eec ""
  "/usr/share/texmf-dist/tex/generic/pgf/utilities/pgfutil-common-lists.tex" 1550406775 6833 114eda2cf1d348e0e7e477a1a4dc1941 ""
  "/usr/share/texmf-dist/tex/generic/pgf/utilities/pgfutil-common.tex" 1550406775 26409 498c460a45ec6d31d3794cb500da29ed ""
  "/usr/share/texmf-dist/tex/generic/pgf/utilities/pgfutil-latex.def" 1550406775 5845 c578abb59cb8ad0a9156fdb1b59cfa38 ""
  "/usr/share/texmf-dist/tex/generic/xkeyval/xkeyval.tex" 1550406775 19231 26434a5656c684f5ffb1f26f98006baa ""
  "/usr/share/texmf-dist/tex/generic/xkeyval/xkvutils.tex" 1550406775 7677 6f5ce7c1124cad7ec57d05b2562bd8fe ""
  "/usr/share/texmf-dist/tex/latex/abnt/abnt.sty" 1550406587 5796 0db0164fee5475bd1c3c2ff5e2e72ce4 ""
  "/usr/share/texmf-dist/tex/latex/base/fontenc.sty" 1550406775 4573 e9e01f5b11821a77b916dad378cb86b8 ""
  "/usr/share/texmf-dist/tex/latex/base/inputenc.sty" 1550406775 5052 b64c57f4a38aae0d2745f8298fa50814 ""
  "/usr/share/texmf-dist/tex/latex/base/ot1enc.def" 1550406775 4453 d5831dc89210b5bb4c03801480f5ff1d ""
  "/usr/share/texmf-dist/tex/latex/base/report.cls" 1550406775 22992 ac205d2578ad3f18cf73b50579632d1c ""
  "/usr/share/texmf-dist/tex/latex/base/size10.clo" 1550406775 8294 6d6e23d5169c0d89d173f6c7e08a005a ""
  "/usr/share/texmf-dist/tex/latex/base/t1enc.def" 1550406775 10689 ce0f2353f9a1f42b29f591f3fe8e040a ""
  "/usr/share/texmf-dist/tex/latex/caption/caption.sty" 1550406775 68576 86bbc6bd5a409b3c353fccc1a815fa5b ""
  "/usr/share/texmf-dist/tex/latex/caption/caption3.sty" 1550406775 68510 943558eecf41da4e76fc614fd7f5deff ""
  "/usr/share/texmf-dist/tex/latex/caption/newfloat.sty" 1550406775 24002 a9cde8f918e6ea68b110258d18c35edd ""
  "/usr/share/texmf-dist/tex/latex/chngcntr/chngcntr.sty" 1550406342 4336 84bc4a8edb126e69abec1a67dc0c36cf ""
  "/usr/share/texmf-dist/tex/latex/emptypage/emptypage.sty" 1550406342 1524 7aa6e808cbd25977ee4abad01b013964 ""
  "/usr/share/texmf-dist/tex/latex/etoolbox/etoolbox.sty" 1550406775 43865 f83cc2fa3767abdb988c7d2cd17c02bf ""
  "/usr/share/texmf-dist/tex/latex/geometry/geometry.sty" 1550406775 41645 0653033a985e06c69a2a9cea9a95e31a ""
  "/usr/share/texmf-dist/tex/latex/graphics-cfg/color.cfg" 1550406775 1213 620bba36b25224fa9b7e1ccb4ecb76fd ""
  "/usr/share/texmf-dist/tex/latex/graphics-cfg/graphics.cfg" 1550406775 1224 978390e9c2234eab29404bc21b268d1e ""
  "/usr/share/texmf-dist/tex/latex/graphics-def/pdftex.def" 1550406775 17334 520b9b85ad8a2a48eda3f643e27a5179 ""
  "/usr/share/texmf-dist/tex/latex/graphics/graphics.sty" 1550406775 15272 5a97061616e0c8b2aa79c6615ff769f4 ""
  "/usr/share/texmf-dist/tex/latex/graphics/graphicx.sty" 1550406775 9063 d0a305975932762117cd1f06a582f896 ""
  "/usr/share/texmf-dist/tex/latex/graphics/keyval.sty" 1550406775 2591 6404d0c7d28505fb38ce0d86c2e28ae7 ""
  "/usr/share/texmf-dist/tex/latex/graphics/trig.sty" 1550406775 3977 cb9221976ed8a183afad65b59aa8629a ""
  "/usr/share/texmf-dist/tex/latex/hyperref/hpdftex.def" 1550406775 51744 477aad43ad6a7ba8c462d20c3e0808e0 ""
  "/usr/share/texmf-dist/tex/latex/hyperref/hyperref.sty" 1550406775 236074 d994150943d35d6af0d586a60cc78dd1 ""
  "/usr/share/texmf-dist/tex/latex/hyperref/nameref.sty" 1550406775 12949 81e4e808884a8f0e276b69410e234656 ""
  "/usr/share/texmf-dist/tex/latex/hyperref/pd1enc.def" 1550406775 14098 b4e1ecab4699a0341b8e1349e4c53fb1 ""
  "/usr/share/texmf-dist/tex/latex/koma-script/scrbase.sty" 1550406775 81085 17c6bc778d65581878b7ff0b0753fb77 ""
  "/usr/share/texmf-dist/tex/latex/koma-script/scrkbase.sty" 1550406775 22023 79a694d8a1bcff7a7bc417d04572bae5 ""
  "/usr/share/texmf-dist/tex/latex/koma-script/scrlayer-scrpage.sty" 1550406775 70981 b0f764879e23417a16617f15311473c4 ""
  "/usr/share/texmf-dist/tex/latex/koma-script/scrlayer.sty" 1550406775 83307 c2e51f335f22163f690881411a650c5a ""
  "/usr/share/texmf-dist/tex/latex/koma-script/scrlfile.sty" 1550406775 15778 6cd4024c756f36926e3648af5491b355 ""
  "/usr/share/texmf-dist/tex/latex/koma-script/tocbasic.sty" 1550406775 81976 8b9a8578993190cef03de666387a190a ""
  "/usr/share/texmf-dist/tex/latex/latexconfig/epstopdf-sys.cfg" 1550406775 678 4792914a8f45be57bb98413425e4c7af ""
  "/usr/share/texmf-dist/tex/latex/latexconfig/hyperref.cfg" 1550406775 235 6031e5765137be07eed51a510b2b8fb7 ""
  "/usr/share/texmf-dist/tex/latex/ly1/ly1enc.def" 1550407196 11946 d12ad5d7adce38642490713f93964ec2 ""
  "/usr/share/texmf-dist/tex/latex/ly1/ly1ptm.fd" 1550407196 1053 1946f431f0fed8f7fd7d097237037354 ""
  "/usr/share/texmf-dist/tex/latex/ms/everyshi.sty" 1550406775 3878 6aa7c08ff2621006e0603349e40a30a8 ""
  "/usr/share/texmf-dist/tex/latex/mweights/mweights.sty" 1550407196 4953 67f29a12ea26221103fce6bae3433e60 ""
  "/usr/share/texmf-dist/tex/latex/oberdiek/auxhook.sty" 1550406775 3834 4363110eb0ef1eb2b71c8fcbcdb6c357 ""
  "/usr/share/texmf-dist/tex/latex/oberdiek/epstopdf-base.sty" 1550406775 12095 5337833c991d80788a43d3ce26bd1c46 ""
  "/usr/share/texmf-dist/tex/latex/oberdiek/grfext.sty" 1550406775 7075 2fe3d848bba95f139de11ded085e74aa ""
  "/usr/share/texmf-dist/tex/latex/oberdiek/kvoptions.sty" 1550406775 22417 1d9df1eb66848aa31b18a593099cf45c ""
  "/usr/share/texmf-dist/tex/latex/oberdiek/rerunfilecheck.sty" 1550406775 9581 023642318cef9f4677efe364de1e2a27 ""
  "/usr/share/texmf-dist/tex/latex/pgf/basiclayer/pgf.sty" 1550406775 1090 d20f587ea9464d1841bd0d13d3ff9856 ""
  "/usr/share/texmf-dist/tex/latex/pgf/basiclayer/pgfcore.sty" 1550406775 410 5bf12ea7330e5f12c445332a4fe9a263 ""
  "/usr/share/texmf-dist/tex/latex/pgf/compatibility/pgfcomp-version-0-65.sty" 1550406775 21013 e98e1aaaf40d31632787c2bd25d24b57 ""
  "/usr/share/texmf-dist/tex/latex/pgf/compatibility/pgfcomp-version-1-18.sty" 1550406775 989 2cf3da8e8ec55131c49389428d565e37 ""
  "/usr/share/texmf-dist/tex/latex/pgf/frontendlayer/tikz.sty" 1550406775 339 592cf35cba3d400082b8a9a5d0199d70 ""
  "/usr/share/texmf-dist/tex/latex/pgf/math/pgfmath.sty" 1550406775 306 0796eafca5e159e6ec2167a6d22d81b1 ""
  "/usr/share/texmf-dist/tex/latex/pgf/systemlayer/pgfsys.sty" 1550406775 443 0b2e781830192df35c0fd357cf13e26e ""
  "/usr/share/texmf-dist/tex/latex/pgf/utilities/pgffor.sty" 1550406775 348 8927fde343487e003b01a4c2ca34073b ""
  "/usr/share/texmf-dist/tex/latex/pgf/utilities/pgfkeys.sty" 1550406775 274 4cad6e665cc93ac2ac979039a94fa1e1 ""
  "/usr/share/texmf-dist/tex/latex/pgf/utilities/pgfrcs.sty" 1550406775 325 2bcd023400636339210573e2b3ee298b ""
  "/usr/share/texmf-dist/tex/latex/psnfss/t1ptm.fd" 1550406775 774 61d7da1e9f9e74989b196d147e623736 ""
  "/usr/share/texmf-dist/tex/latex/setspace/setspace.sty" 1550406775 22913 a27d7908fc6f0385466454a966a316eb ""
  "/usr/share/texmf-dist/tex/latex/sourcecodepro/sourcecodepro.sty" 1550407196 6234 7da9c90aee6935036ebeccd15cebdc78 ""
  "/usr/share/texmf-dist/tex/latex/tools/enumerate.sty" 1550406775 3465 3f63ff30365d38132fb55859c9cabd4d ""
  "/usr/share/texmf-dist/tex/latex/ucs/data/uni-0.def" 1550406342 7784 086a50b784a20762a031889b73f97126 ""
  "/usr/share/texmf-dist/tex/latex/ucs/data/uni-34.def" 1550406342 10889 f4bb23aad9b12df75a5d13bd63a0cd45 ""
  "/usr/share/texmf-dist/tex/latex/ucs/data/uni-global.def" 1550406342 1375 8a855db83af5d6753ccbbd32e6a8a901 ""
  "/usr/share/texmf-dist/tex/latex/ucs/ucs.sty" 1550406342 27982 5723d81d568db410592a59b85fb3eaae ""
  "/usr/share/texmf-dist/tex/latex/ucs/ucsencs.def" 1550406342 22368 c53c9d0d16c65bef2b157515c9d9f658 ""
  "/usr/share/texmf-dist/tex/latex/ucs/utf8x.def" 1550406342 8036 21f7ac37aafb6cfeddbb196b8bfd6280 ""
  "/usr/share/texmf-dist/tex/latex/url/url.sty" 1550406775 12796 8edb7d69a20b857904dd0ea757c14ec9 ""
  "/usr/share/texmf-dist/tex/latex/xcolor/xcolor.sty" 1550406775 55589 34128738f682d033422ca125f82e5d62 ""
  "/usr/share/texmf-dist/tex/latex/xkeyval/xkeyval.sty" 1550406775 4962 9c1069474ff71dbc47d5006555e352d3 ""
  "/usr/share/texmf-dist/web2c/texmf.cnf" 1550406775 33301 a3134070eacafb10b1f371612ce2650d ""
  "/var/lib/texmf/fonts/map/pdftex/updmap/pdftex.map" 1556903603 3233842 1a92d1d21a91d82fa70913e968179e54 ""
  "/var/lib/texmf/web2c/pdftex/pdflatex.fmt" 1556903590 7919195 c235a325622757e6930ec5b55df8484c ""
  "NúmerosComplexos.aux" 1557184188 2927 c484f12936f52e16563d80e7dbb577dc ""
  "NúmerosComplexos.out" 1557184188 734 1fb1dd5127e36ae9cf2f1e833dcbf320 ""
  "NúmerosComplexos.tex" 1557184188 6894 a5faddd0570d1755dad6602ea4fab5e8 ""
  "NúmerosComplexos.toc" 1557184188 1245 027029c33970eb93eb2a63e5f7fe4163 ""
  (generated)
  "NúmerosComplexos.log"
  "NúmerosComplexos.aux"
  "NúmerosComplexos.pdf"
  "NúmerosComplexos.out"
  "NúmerosComplexos.toc"
  "/home/jhony75/Documents/Faculdade/AlgebraLinear/NúmerosComplexos.log"
  "/home/jhony75/Documents/Faculdade/AlgebraLinear/NúmerosComplexos.pdf"
