\relax 
\catcode `"\active 
\babel@aux{brazilian}{}
\@writefile{toc}{\contentsline {chapter}{\numberline {1}Regra de Kinchoff}{II}\protected@file@percent }
\@writefile{lof}{\addvspace {10\p@ }}
\@writefile{lot}{\addvspace {10\p@ }}
\global\@namedef{scr@dte@chapter@lastmaxnumwidth}{10.3474pt}
