\babel@toc {brazilian}{}
\contentsline {chapter}{\numberline {1}Cargas El\IeC {\'e}tricas}{2}% 
\contentsline {section}{\numberline {1.1}O Que \IeC {\'e} F\IeC {\'\i }sica?}{2}% 
\contentsline {section}{\numberline {1.2}Cargas El\IeC {\'e}tricas}{2}% 
\contentsline {section}{\numberline {1.3}Condutores e Isolantes}{2}% 
\contentsline {subsection}{\numberline {1.3.1}condutores}{2}% 
\contentsline {subsection}{\numberline {1.3.2}N\IeC {\~a}o Condutores ou Isolantes}{2}% 
\contentsline {subsection}{\numberline {1.3.3}Semicondutores}{2}% 
\contentsline {subsection}{\numberline {1.3.4}Supercondutores}{3}% 
