\relax 
\catcode `"\active 
\babel@aux{brazilian}{}
\@writefile{toc}{\contentsline {chapter}{\numberline {1}Cargas El\IeC {\'e}tricas}{2}\protected@file@percent }
\@writefile{lof}{\addvspace {10\p@ }}
\@writefile{lot}{\addvspace {10\p@ }}
\@writefile{toc}{\contentsline {section}{\numberline {1.1}O Que \IeC {\'e} F\IeC {\'\i }sica?}{2}\protected@file@percent }
\@writefile{toc}{\contentsline {section}{\numberline {1.2}Cargas El\IeC {\'e}tricas}{2}\protected@file@percent }
\@writefile{toc}{\contentsline {section}{\numberline {1.3}Condutores e Isolantes}{2}\protected@file@percent }
\@writefile{toc}{\contentsline {subsection}{\numberline {1.3.1}condutores}{2}\protected@file@percent }
\@writefile{toc}{\contentsline {subsection}{\numberline {1.3.2}N\IeC {\~a}o Condutores ou Isolantes}{2}\protected@file@percent }
\@writefile{toc}{\contentsline {subsection}{\numberline {1.3.3}Semicondutores}{2}\protected@file@percent }
\@writefile{toc}{\contentsline {subsection}{\numberline {1.3.4}Supercondutores}{3}\protected@file@percent }
\global\@namedef{scr@dte@chapter@lastmaxnumwidth}{10.3474pt}
